BST260 Final Project
…
#distance less than 10^5 meter
data <- dataq %>% filter(NEAR_DIST<10^5)

#add_multiple injury
Left<-function(x,chr){
  return(substr(x,1,chr))}

data<-mutate(data, leftMul = Left(PARTOFBODYTITLE,3))
data<-mutate(data, MultiInj = ifelse(data$leftMul=="Mul", "1", "0"))
data

## # A tibble: 44,660 x 39
##    XCoord YCoord OBJECTID     ID    UPA EVENTDATE           EMPLOYER
##     <dbl>  <dbl>    <dbl>  <dbl>  <dbl> <dttm>              <chr>   
##  1  -74.5   41.5        1 2.02e9 931176 2015-01-01 00:00:00 FCI Oti~
##  2  -89.8   43.6        2 2.02e9 930267 2015-01-01 00:00:00 Kalahar~
##  3  -80.1   40.5        3 2.02e9 929823 2015-01-01 00:00:00 Schneid~
##  4  -83.6   32.8        4 2.02e9 929711 2015-01-01 00:00:00 PEPSI B~
##  5  -89.0   42.7        5 2.02e9 929642 2015-01-01 00:00:00 North A~
##  6  -81.9   26.7        6 2.02e9 929709 2015-01-01 00:00:00 The Hom~
##  7  -82.4   28.0        7 2.02e9 932133 2015-01-01 00:00:00 Gopher ~
##  8 -105.    40.5        8 2.02e9 930028 2015-01-02 00:00:00 Foster ~
##  9  -99.4   36.4        9 2.02e9 930006 2015-01-02 00:00:00 Trinida~
## 10  -81.5   28.6       10 2.02e9 933583 2015-01-02 00:00:00 The Kry~
## # ... with 44,650 more rows, and 32 more variables: ADDRESS1 <chr>,
## #   ADDRESS2 <chr>, CITY <chr>, STATE <chr>, ZIP <chr>, LATITUDE <chr>,
## #   LONGITUDE <chr>, PRIMARYNAICS <dbl>, HOSPITALIZED <dbl>,
## #   AMPUTATION <dbl>, INSPECTION <chr>, FINALNARRATIVE <chr>,
## #   NATURE <chr>, NATURETITLE <chr>, PARTOFBODY <chr>,
## #   PARTOFBODYTITLE <chr>, EVENT <chr>, EVENTTITLE <chr>, SOURCE <chr>,
## #   SOURCETITLE <chr>, SECONDARYSOURCE <chr>, SECONDARYSOURCETITLE <chr>,
## #   DATE <chr>, DATE_X <chr>, DATE_Y <chr>, NEAR_FID <chr>,
## #   NEAR_DIST <dbl>, NEAR_X <dbl>, NEAR_Y <dbl>, POP <dbl>, leftMul <chr>,
…
